<?xml version="1.0" encoding="utf-8"?>
<!-- Generator: Adobe Illustrator 17.0.0, SVG Export Plug-In . SVG Version: 6.00 Build 0)  -->
<!DOCTYPE svg PUBLIC "-//W3C//DTD SVG 1.1//EN" "http://www.w3.org/Graphics/SVG/1.1/DTD/svg11.dtd">
<svg version="1.1" id="Layer_1" xmlns="http://www.w3.org/2000/svg" xmlns:xlink="http://www.w3.org/1999/xlink" x="0px" y="0px"
	 width="64px" height="64px" viewBox="0 0 64 64" enable-background="new 0 0 64 64" xml:space="preserve">
<g>
	<path d="M62.424,49.033L38.75,8.178c-3.684-6.359-9.72-6.362-13.411-0.009L1.583,49.043C-2.11,55.396,0.882,60.594,8.23,60.594
		h47.532C63.11,60.594,66.108,55.392,62.424,49.033z M32.261,53.399c-2.276,0-4.087-1.81-4.087-4.087
		c0-2.276,1.81-4.087,4.087-4.087c2.275,0,4.087,1.811,4.087,4.087C36.348,51.589,34.536,53.399,32.261,53.399z M35.157,42.639
		h-5.793l-1.95-23.586h9.694L35.157,42.639z"/>
</g>
</svg>
