<?xml version="1.0" encoding="utf-8"?>
<!-- Generator: Adobe Illustrator 17.0.0, SVG Export Plug-In . SVG Version: 6.00 Build 0)  -->
<!DOCTYPE svg PUBLIC "-//W3C//DTD SVG 1.1//EN" "http://www.w3.org/Graphics/SVG/1.1/DTD/svg11.dtd">
<svg version="1.1" id="Layer_1" xmlns="http://www.w3.org/2000/svg" xmlns:xlink="http://www.w3.org/1999/xlink" x="0px" y="0px"
	 width="64px" height="64px" viewBox="0 0 64 64" enable-background="new 0 0 64 64" xml:space="preserve">
<g>
	<path d="M53.074,8.857V5.414C53.074,2.025,50.935,0,47.353,0c-3.582,0-5.721,2.025-5.721,5.414v3.443h-3.876V5.414
		c0-3.389-2.138-5.414-5.72-5.414c-3.582,0-5.721,2.025-5.721,5.414v3.443h-3.876V5.414C22.439,2.025,20.3,0,16.718,0
		c-3.582,0-5.721,2.025-5.721,5.414v3.443H4.428V64h55.144V8.857H53.074z M44.696,5.414c0-1.673,0.766-2.351,2.657-2.351
		c1.891,0,2.658,0.678,2.658,2.351v9.208c0,1.672-0.766,2.351-2.658,2.351c-1.89,0-2.657-0.679-2.657-2.351V5.414z M29.378,5.414
		c0-1.673,0.767-2.351,2.658-2.351c1.891,0,2.657,0.678,2.657,2.351v9.208c0,1.672-0.766,2.351-2.657,2.351
		c-1.891,0-2.658-0.679-2.658-2.351V5.414z M14.06,5.414c0-1.673,0.767-2.351,2.658-2.351c1.89,0,2.657,0.678,2.657,2.351v9.208
		c0,1.672-0.766,2.351-2.657,2.351c-1.891,0-2.658-0.679-2.658-2.351V5.414z M54.976,59.405H9.024V21.11h45.953V59.405z"/>
	<path d="M32.13,44.666c0-2.922-1.97-4.538-5.415-5.524v-0.07c3.095-1.054,4.782-2.744,4.782-5.381c0-2.673-2.638-4.784-7.174-4.784
		c-2.145,0-4.397,0.281-6.296,1.161l0.526,3.868c1.443-0.704,2.991-1.159,4.574-1.159c2.461,0,3.13,0.844,3.13,2.109
		c0,1.83-1.759,2.639-4.749,2.849v3.87c4.326,0.246,5.733,1.161,5.733,3.377c0,1.618-1.548,2.849-3.938,2.849
		c-1.971,0-3.518-0.281-5.382-0.986l-0.528,3.87c1.512,0.599,3.517,0.985,5.417,0.985C28.05,51.699,32.13,49.272,32.13,44.666z"/>
	<polygon points="40.18,34.993 40.18,51.348 44.893,51.348 44.893,29.261 42.536,29.261 35.783,32.6 36.31,36.469 	"/>
</g>
</svg>
