<?xml version="1.0" encoding="utf-8"?>
<!-- Generator: Adobe Illustrator 16.2.1, SVG Export Plug-In . SVG Version: 6.00 Build 0)  -->
<!DOCTYPE svg PUBLIC "-//W3C//DTD SVG 1.1//EN" "http://www.w3.org/Graphics/SVG/1.1/DTD/svg11.dtd">
<svg version="1.1" id="Layer_1" xmlns="http://www.w3.org/2000/svg" xmlns:xlink="http://www.w3.org/1999/xlink" x="0px" y="0px"
	 width="64px" height="64px" viewBox="0 0 64 64" enable-background="new 0 0 64 64" xml:space="preserve">
<g>
	<path fill="#F05F22" d="M31.954,52.764L1.97,22.732c-2.628-2.631-2.625-6.897,0.009-9.525c2.631-2.631,6.897-2.628,9.525,0.006
		L31.97,33.71l20.533-20.502c2.638-2.631,6.9-2.628,9.525,0.006c2.631,2.631,2.625,6.9-0.006,9.528L31.954,52.764z"/>
</g>
</svg>
