<?xml version="1.0" encoding="utf-8"?>
<!-- Generator: Adobe Illustrator 17.0.0, SVG Export Plug-In . SVG Version: 6.00 Build 0)  -->
<!DOCTYPE svg PUBLIC "-//W3C//DTD SVG 1.1//EN" "http://www.w3.org/Graphics/SVG/1.1/DTD/svg11.dtd">
<svg version="1.1" id="Layer_1" xmlns="http://www.w3.org/2000/svg" xmlns:xlink="http://www.w3.org/1999/xlink" x="0px" y="0px"
	 width="64px" height="64px" viewBox="0 0 64 64" enable-background="new 0 0 64 64" xml:space="preserve">
<path d="M62.315,26.256l-9.559-1.761c-0.928-0.17-1.254-0.949-0.728-1.73l5.484-8.129c0.527-0.782,0.413-1.966-0.254-2.633
	l-5.261-5.259c-0.666-0.667-1.851-0.781-2.633-0.254l-8.13,5.484c-0.782,0.527-1.561,0.199-1.731-0.727l-1.76-9.562
	C37.573,0.758,36.662,0,35.72,0h-7.44c-0.942,0-1.854,0.758-2.024,1.685l-1.76,9.561c-0.171,0.926-0.95,1.254-1.732,0.727
	L14.636,6.49c-0.781-0.527-1.966-0.414-2.633,0.254l-5.261,5.26c-0.667,0.667-0.781,1.853-0.254,2.633l5.483,8.129
	c0.526,0.782,0.2,1.56-0.728,1.73l-9.558,1.761C0.757,26.427,0,27.338,0,28.281v7.438c0,0.942,0.757,1.854,1.685,2.025l9.562,1.76
	c0.926,0.171,1.253,0.95,0.726,1.731l-5.485,8.13c-0.527,0.782-0.413,1.966,0.254,2.633l5.261,5.26
	c0.667,0.667,1.852,0.782,2.633,0.254l8.128-5.481c0.782-0.529,1.561-0.2,1.732,0.725l1.76,9.56C26.426,63.242,27.337,64,28.28,64
	h7.44c0.942,0,1.854-0.758,2.025-1.685l1.76-9.56c0.17-0.926,0.95-1.254,1.731-0.725l8.13,5.482
	c0.782,0.528,1.967,0.413,2.633-0.254L57.257,52c0.667-0.668,0.781-1.852,0.254-2.634l-5.485-8.131
	c-0.527-0.781-0.2-1.56,0.726-1.731l9.562-1.76C63.242,37.573,64,36.662,64,35.719v-7.438C64,27.338,63.242,26.427,62.315,26.256z
	 M31.996,43.59c-6.386,0-11.564-5.177-11.564-11.563c0-6.386,5.177-11.563,11.564-11.563c6.386,0,11.563,5.177,11.563,11.563
	C43.559,38.413,38.382,43.59,31.996,43.59z"/>
</svg>
