<?xml version="1.0" encoding="utf-8"?>
<!-- Generator: Adobe Illustrator 17.0.0, SVG Export Plug-In . SVG Version: 6.00 Build 0)  -->
<!DOCTYPE svg PUBLIC "-//W3C//DTD SVG 1.1//EN" "http://www.w3.org/Graphics/SVG/1.1/DTD/svg11.dtd">
<svg version="1.1" id="Layer_1" xmlns="http://www.w3.org/2000/svg" xmlns:xlink="http://www.w3.org/1999/xlink" x="0px" y="0px"
	 width="64px" height="64px" viewBox="0 0 64 64" enable-background="new 0 0 64 64" xml:space="preserve">
<g>
	<path d="M0.01,21.865v12.317c7.994,0,15.506,3.123,21.155,8.799c5.582,5.61,8.682,13.05,8.761,20.987h12.317
		C42.074,40.724,23.197,21.865,0.01,21.865z"/>
	<path d="M0.027,0.032v12.316c28.378,0,51.48,23.128,51.656,51.62H64C63.824,28.683,35.199,0.032,0.027,0.032z"/>
	<circle cx="8.531" cy="55.422" r="8.53"/>
</g>
</svg>
