<?xml version="1.0" encoding="utf-8"?>
<!-- Generator: Adobe Illustrator 17.0.0, SVG Export Plug-In . SVG Version: 6.00 Build 0)  -->
<!DOCTYPE svg PUBLIC "-//W3C//DTD SVG 1.1//EN" "http://www.w3.org/Graphics/SVG/1.1/DTD/svg11.dtd">
<svg version="1.1" id="Layer_1" xmlns="http://www.w3.org/2000/svg" xmlns:xlink="http://www.w3.org/1999/xlink" x="0px" y="0px"
	 width="64px" height="64px" viewBox="0 0 64 64" enable-background="new 0 0 64 64" xml:space="preserve">
<g>
	<g>
		<path d="M10.503,3.714H4.121v12.668H0v16.509h4.121v27.395h6.383V32.891h4V16.382h-4V3.714z M12.315,18.572v12.129H2.19V18.572
			H12.315z"/>
		<path d="M27.012,3.714h-6.381v32.627h-4.198V52.85h4.198v7.436h6.381V52.85h3.924V36.341h-3.924V3.714z M28.746,38.531V50.66
			H18.622V38.531H28.746z"/>
		<path d="M43.431,3.714H37.05v6.624h-4.114v16.508h4.114v33.44h6.382v-33.44h4.008V10.338h-4.008V3.714z M45.25,12.527v12.129
			H35.126V12.527H45.25z"/>
		<path d="M59.852,29.793V3.714H53.47v26.079h-3.973v16.508h3.973v13.984h6.383V46.302H64V29.793H59.852z M61.81,44.113H51.685
			v-12.13H61.81V44.113z"/>
	</g>
</g>
</svg>
