<?xml version="1.0" encoding="utf-8"?>
<!-- Generator: Adobe Illustrator 17.0.0, SVG Export Plug-In . SVG Version: 6.00 Build 0)  -->
<!DOCTYPE svg PUBLIC "-//W3C//DTD SVG 1.1//EN" "http://www.w3.org/Graphics/SVG/1.1/DTD/svg11.dtd">
<svg version="1.1" id="Layer_1" xmlns="http://www.w3.org/2000/svg" xmlns:xlink="http://www.w3.org/1999/xlink" x="0px" y="0px"
	 width="64px" height="64px" viewBox="0 0 64 64" enable-background="new 0 0 64 64" xml:space="preserve">
<g>
	<polygon points="27.255,26.419 28.418,31.663 36.735,31.663 36.733,26.419 	"/>
	<polygon points="41.298,26.419 41.275,31.663 49.198,31.663 50.582,26.419 	"/>
	<circle cx="28.825" cy="49.588" r="5.27"/>
	<circle cx="48.654" cy="49.588" r="5.27"/>
	<g>
		<path d="M62.012,13.802c-0.25-0.075-0.501-0.112-0.75-0.112c-1.12,0-2.161,0.729-2.498,1.862l-0.351,1.17H19.861l-1.377-5.591
			c-0.288-1.163-1.339-1.99-2.535-1.99H2.489c-1.445,0.002-2.61,1.168-2.614,2.615c0.003,1.438,1.169,2.607,2.614,2.609h11.413
			l6.17,25.007c0.285,1.162,1.34,1.991,2.533,1.989h31.931c1.15,0.002,2.171-0.761,2.5-1.864l6.73-22.444
			c0.076-0.252,0.11-0.507,0.11-0.753c0-1.12-0.729-2.162-1.86-2.499 M52.751,35.607l-0.159,0.533H24.652L21.15,21.943h35.698
			L52.751,35.607z"/>
	</g>
</g>
</svg>
